<svg xmlns="http://www.w3.org/2000/svg" width="24" height="24" viewBox="0 0 24 24">
    <g stroke="#fff" stroke-linejoin="round" stroke-miterlimit="10" fill="none">
        <path d="M10.5 21.5h-10v-21h11l5 5.002v3.998"/>
        <path stroke-linecap="round" d="M11.5.5v5h5"/>
        <circle cx="17.5" cy="17.5" r="6"/>
        <path stroke-linecap="round" d="M17.5 20.226v-5.455M15.318 18.046l2.182 2.182 2.182-2.182"/>
    </g>
</svg>