<?xml version="1.0" encoding="utf-8"?>
<!-- Generator: Adobe Illustrator 16.0.0, SVG Export Plug-In . SVG Version: 6.00 Build 0)  -->
<!DOCTYPE svg PUBLIC "-//W3C//DTD SVG 1.1//EN" "http://www.w3.org/Graphics/SVG/1.1/DTD/svg11.dtd">
<svg version="1.1" id="Layer_1" xmlns="http://www.w3.org/2000/svg" xmlns:xlink="http://www.w3.org/1999/xlink" x="0px" y="0px"
	 width="32px" height="32px" viewBox="0 0 32 32" enable-background="new 0 0 32 32" xml:space="preserve">
<polyline fill="none" stroke="#010101" stroke-linejoin="round" stroke-miterlimit="10" points="24.5,25 24.5,27.5 7.5,27.5 7.5,4.5 18.5,4.5   24.5,10.5 24.5,14"/>
<polyline fill="none" stroke="#010101" stroke-linejoin="round" stroke-miterlimit="10" points="18.5,4.5 18.5,10.5 24.5,10.5"/>
<text transform="matrix(1 0 0 1 9.5 23.498)" font-family="'DaimlerCS-Regular'" font-size="10">PNG</text>
</svg>
