<?xml version="1.0" encoding="utf-8"?>
<!-- Generator: Adobe Illustrator 16.0.0, SVG Export Plug-In . SVG Version: 6.00 Build 0)  -->
<!DOCTYPE svg PUBLIC "-//W3C//DTD SVG 1.1//EN" "http://www.w3.org/Graphics/SVG/1.1/DTD/svg11.dtd">
<svg version="1.1" id="Layer_1" xmlns="http://www.w3.org/2000/svg" xmlns:xlink="http://www.w3.org/1999/xlink" x="0px" y="0px"
	 width="25px" height="25px" viewBox="0 0 25 25" enable-background="new 0 0 25 25" xml:space="preserve">
<g>
	<polyline fill="none" stroke="#9e9e9e" stroke-linecap="round" stroke-linejoin="round" stroke-miterlimit="10" points="20,7.5 
		17.5,1.5 15,7.5 	"/>
	<line fill="none" stroke="#9e9e9e" stroke-linejoin="round" stroke-miterlimit="10" x1="16" y1="5" x2="19" y2="5"/>
	
		<line fill="none" stroke="#9e9e9e" stroke-linecap="round" stroke-linejoin="round" stroke-miterlimit="10" x1="6.5" y1="9.5" x2="6.5" y2="24.5"/>
	<polyline fill="none" stroke="#9e9e9e" stroke-linecap="round" stroke-linejoin="round" stroke-miterlimit="10" points="3.5,12.5 
		6.5,9.5 9.5,12.5 	"/>
	<polyline fill="none" stroke="#9e9e9e" stroke-linecap="round" stroke-linejoin="round" stroke-miterlimit="10" points="3.5,21.5 
		6.5,24.5 9.5,21.5 	"/>
	
		<line fill="none" stroke="#9e9e9e" stroke-linecap="round" stroke-linejoin="round" stroke-miterlimit="10" x1="22.5" y1="9.5" x2="12.5" y2="9.5"/>
	
		<line fill="none" stroke="#9e9e9e" stroke-linecap="round" stroke-linejoin="round" stroke-miterlimit="10" x1="22.5" y1="24.5" x2="12.5" y2="24.5"/>
	<polyline fill="none" stroke="#9e9e9e" stroke-linecap="round" stroke-linejoin="round" stroke-miterlimit="10" points="15,16.5 
		20.012,16.5 15,22.5 20.012,22.5 	"/>
</g>
</svg>
