<?xml version="1.0" encoding="utf-8"?>
<!-- Generator: Adobe Illustrator 16.0.0, SVG Export Plug-In . SVG Version: 6.00 Build 0)  -->
<!DOCTYPE svg PUBLIC "-//W3C//DTD SVG 1.1//EN" "http://www.w3.org/Graphics/SVG/1.1/DTD/svg11.dtd">
<svg version="1.1" id="Layer_1" xmlns="http://www.w3.org/2000/svg" xmlns:xlink="http://www.w3.org/1999/xlink" x="0px" y="0px"
	 width="25px" height="25px" viewBox="0 0 25 25" enable-background="new 0 0 25 25" xml:space="preserve">
<g>
	<path fill="none" stroke="#969da3" stroke-linecap="round" stroke-linejoin="round" stroke-miterlimit="10" d="M24,12.5
		c0,0-5.148,6.5-11.5,6.5S1,12.5,1,12.5S6.148,6,12.5,6S24,12.5,24,12.5z"/>
	
		<circle fill="none" stroke="#969da3" stroke-linecap="round" stroke-linejoin="round" stroke-miterlimit="10" cx="12.5" cy="12.5" r="4"/>
</g>
</svg>
