<?xml version="1.0" encoding="utf-8"?>
<!-- Generator: Adobe Illustrator 16.0.0, SVG Export Plug-In . SVG Version: 6.00 Build 0)  -->
<!DOCTYPE svg PUBLIC "-//W3C//DTD SVG 1.1//EN" "http://www.w3.org/Graphics/SVG/1.1/DTD/svg11.dtd">
<svg version="1.1" id="Layer_1" xmlns="http://www.w3.org/2000/svg" xmlns:xlink="http://www.w3.org/1999/xlink" x="0px" y="0px"
	 width="25px" height="25px" viewBox="0 0 25 25" enable-background="new 0 0 25 25" xml:space="preserve">
<g>
	<path fill="none" stroke="#9e9e9e" stroke-linecap="round" stroke-linejoin="round" stroke-miterlimit="10" d="M20,15.629
		L20,15.629c0.829,0,1.5,0.672,1.5,1.5c0,0.83-0.671,1.5-1.5,1.5h-1c0.829,0,1.5,0.672,1.5,1.5c0,0.83-0.671,1.5-1.5,1.5
		c0,0-4,0-6.5,0c-4,0-3-2-11-2c0-0.5,0-9,0-9h3c3.5,0,7.5-3.221,7.5-8c0-1.58,3-1.781,3,1.219c0,2-1,5.781-1,5.781h8
		c0.829,0,1.5,0.672,1.5,1.5c0,0.83-0.671,1.5-1.5,1.5h-1c0.829,0,1.5,0.672,1.5,1.5c0,0.83-0.671,1.5-1.5,1.5H20"/>
</g>
</svg>
