<?xml version="1.0" encoding="utf-8"?>
<!-- Generator: Adobe Illustrator 16.0.0, SVG Export Plug-In . SVG Version: 6.00 Build 0)  -->
<!DOCTYPE svg PUBLIC "-//W3C//DTD SVG 1.1//EN" "http://www.w3.org/Graphics/SVG/1.1/DTD/svg11.dtd">
<svg version="1.1" id="Layer_1" xmlns="http://www.w3.org/2000/svg" xmlns:xlink="http://www.w3.org/1999/xlink" x="0px" y="0px"
	 width="25px" height="25px" viewBox="0 0 25 25" enable-background="new 0 0 25 25" xml:space="preserve">
<g>
	<polygon fill="none" stroke="#fff" stroke-linejoin="round" stroke-miterlimit="10" points="23.5,15.016 15.015,23.5 
		0.508,8.994 0.5,0.5 8.992,0.5 	"/>
	<circle fill="none" stroke="#fff" stroke-linejoin="round" stroke-miterlimit="10" cx="5.5" cy="5.5" r="2"/>
</g>
</svg>
