<?xml version="1.0" encoding="utf-8"?>
<!-- Generator: Adobe Illustrator 16.0.0, SVG Export Plug-In . SVG Version: 6.00 Build 0)  -->
<!DOCTYPE svg PUBLIC "-//W3C//DTD SVG 1.1//EN" "http://www.w3.org/Graphics/SVG/1.1/DTD/svg11.dtd">
<svg version="1.1" id="Layer_1" xmlns="http://www.w3.org/2000/svg" xmlns:xlink="http://www.w3.org/1999/xlink" x="0px" y="0px"
	 width="25px" height="25px" viewBox="0 0 25 25" enable-background="new 0 0 25 25" xml:space="preserve">
<g>
	<path d="M24.5,24H24V9.5C24,9.224,23.775,9,23.5,9h-3C20.224,9,20,9.224,20,9.5V24h-2V13.5c0-0.275-0.225-0.5-0.5-0.5h-3
		c-0.276,0-0.5,0.225-0.5,0.5V24h-2v-6.5c0-0.276-0.225-0.5-0.5-0.5h-3C8.224,17,8,17.224,8,17.5V24H6v-2.5
		C6,21.224,5.775,21,5.5,21h-3C2.224,21,2,21.224,2,21.5V24H1.5C1.224,24,1,24.224,1,24.5C1,24.775,1.224,25,1.5,25h23
		c0.275,0,0.5-0.225,0.5-0.5C25,24.224,24.775,24,24.5,24z"/>
	<path d="M4,14.971c0.096,0,0.191-0.025,0.277-0.084L21.369,3.493l-0.365,2.946c-0.034,0.274,0.16,0.524,0.435,0.558
		C21.459,6.999,21.479,7,21.5,7c0.249,0,0.465-0.186,0.496-0.438l0.5-4.028c0.03-0.246-0.152-0.519-0.42-0.551
		c-0.028-0.011-3.987-0.476-4.018-0.479c-0.279-0.032-0.523,0.164-0.556,0.439c-0.032,0.274,0.164,0.522,0.438,0.554l2.65,0.313
		L3.723,14.055c-0.23,0.154-0.292,0.465-0.139,0.693C3.68,14.895,3.839,14.971,4,14.971z"/>
</g>
</svg>
