<?xml version="1.0" encoding="utf-8"?>
<!-- Generator: Adobe Illustrator 16.0.0, SVG Export Plug-In . SVG Version: 6.00 Build 0)  -->
<!DOCTYPE svg PUBLIC "-//W3C//DTD SVG 1.1//EN" "http://www.w3.org/Graphics/SVG/1.1/DTD/svg11.dtd">
<svg version="1.1" id="Layer_1" xmlns="http://www.w3.org/2000/svg" xmlns:xlink="http://www.w3.org/1999/xlink" x="0px" y="0px"
	 width="25px" height="25px" viewBox="0 0 25 25" enable-background="new 0 0 25 25" xml:space="preserve">
<g>
	
		<line fill="none" stroke="#969da3" stroke-linecap="round" stroke-linejoin="round" stroke-miterlimit="10" x1="1.5" y1="24.5" x2="24.5" y2="24.5"/>
	
		<rect x="2.5" y="21.5" fill="none" stroke="#969da3" stroke-linecap="round" stroke-linejoin="round" stroke-miterlimit="10" width="3" height="3"/>
	
		<rect x="8.5" y="17.5" fill="none" stroke="#969da3" stroke-linecap="round" stroke-linejoin="round" stroke-miterlimit="10" width="3" height="7"/>
	
		<rect x="14.5" y="13.5" fill="none" stroke="#969da3" stroke-linecap="round" stroke-linejoin="round" stroke-miterlimit="10" width="3" height="11"/>
	
		<rect x="20.5" y="9.5" fill="none" stroke="#969da3" stroke-linecap="round" stroke-linejoin="round" stroke-miterlimit="10" width="3" height="15"/>
	
		<line fill="none" stroke="#969da3" stroke-linecap="round" stroke-linejoin="round" stroke-miterlimit="10" x1="4" y1="14.471" x2="22" y2="2.471"/>
	<polyline fill="none" stroke="#969da3" stroke-linecap="round" stroke-linejoin="round" stroke-miterlimit="10" points="21.5,6.5 
		22,2.471 18,2 	"/>
</g>
</svg>
