<?xml version="1.0" encoding="utf-8"?>
<!-- Generator: Adobe Illustrator 16.0.0, SVG Export Plug-In . SVG Version: 6.00 Build 0)  -->
<!DOCTYPE svg PUBLIC "-//W3C//DTD SVG 1.1//EN" "http://www.w3.org/Graphics/SVG/1.1/DTD/svg11.dtd">
<svg version="1.1" id="Layer_1" xmlns="http://www.w3.org/2000/svg" xmlns:xlink="http://www.w3.org/1999/xlink" x="0px" y="0px"
	 width="25px" height="25px" viewBox="0 0 25 25" enable-background="new 0 0 25 25" xml:space="preserve">
<g>
	<circle fill="none" stroke="#9e9e9e" stroke-linejoin="round" stroke-miterlimit="10" cx="4.546" cy="4.546" r="4"/>

		<rect x="15.547" y="0.546" fill="none" stroke="#9e9e9e" stroke-linejoin="round" stroke-miterlimit="10" width="8.001" height="8"/>
</g>
<polygon fill="none" stroke="#9e9e9e" stroke-linejoin="round" stroke-miterlimit="10" points="0.546,23.548 4.546,15.548
	8.546,23.548 "/>
<polygon fill="none" stroke="#9e9e9e" stroke-linejoin="round" stroke-miterlimit="10" points="23.548,21.237 19.547,23.548
	15.547,21.237 15.547,16.618 19.547,14.31 23.548,16.618 "/>
</svg>
