<svg id="Ebene_1" data-name="Ebene 1" xmlns="http://www.w3.org/2000/svg" viewBox="0 0 19.5 28.27">
    <defs>
        <style>.cls-1{fill:none;stroke:#fff;stroke-linecap:round;stroke-linejoin:round;}.cls-2{font-size:10px;font-family:DaimlerCSPro-Demi, Daimler CSPro;}</style>
    </defs>
    <title>a-z</title>
    <path class="cls-1" d="M6.63.74v22.8m-3-20,3-3,3,3m-6,17,3,3,3-3m3-10,10,0" transform="translate(-3.13 1.59)"/>
    <text fill="#fff" class="cls-2" transform="translate(11.54 25.53)">Z</text>
    <text fill="#fff" class="cls-2" transform="translate(11.17 8.33)">A</text>
</svg>