<?xml version="1.0" encoding="utf-8"?>
<!-- Generator: Adobe Illustrator 16.0.0, SVG Export Plug-In . SVG Version: 6.00 Build 0)  -->
<!DOCTYPE svg PUBLIC "-//W3C//DTD SVG 1.1//EN" "http://www.w3.org/Graphics/SVG/1.1/DTD/svg11.dtd">
<svg version="1.1" id="Filled_Icons" xmlns="http://www.w3.org/2000/svg" xmlns:xlink="http://www.w3.org/1999/xlink" x="0px"
	 y="0px" width="24px" height="24px" viewBox="0 0 24 24" enable-background="new 0 0 24 24" xml:space="preserve" fill="#fff">
<g>
	<path d="M18.5,24c-0.228,0-0.458-0.078-0.646-0.236l-13-11C4.629,12.573,4.5,12.294,4.5,12s0.129-0.573,0.354-0.764l13-11
		c0.422-0.355,1.053-0.305,1.409,0.118c0.357,0.421,0.304,1.052-0.117,1.409L7.048,12l12.098,10.236
		c0.421,0.357,0.474,0.988,0.117,1.409C19.065,23.88,18.784,24,18.5,24z"/>
</g>
</svg>
