<?xml version="1.0" encoding="utf-8"?>
<!-- Generator: Adobe Illustrator 16.0.0, SVG Export Plug-In . SVG Version: 6.00 Build 0)  -->
<!DOCTYPE svg PUBLIC "-//W3C//DTD SVG 1.1//EN" "http://www.w3.org/Graphics/SVG/1.1/DTD/svg11.dtd">
<svg version="1.1" id="Filled_Icons" xmlns="http://www.w3.org/2000/svg" xmlns:xlink="http://www.w3.org/1999/xlink" x="0px"
	 y="0px" width="24px" height="24px" viewBox="0 0 24 24" enable-background="new 0 0 24 24" xml:space="preserve">
<path fill='#707070' d="M23.936,2.255C23.848,2.098,23.681,2,23.5,2h-23C0.32,2,0.153,2.098,0.065,2.255c-0.089,0.157-0.085,0.35,0.008,0.504
	l11.5,19C11.663,21.908,11.826,22,12,22s0.337-0.092,0.428-0.241l11.5-19C24.021,2.604,24.025,2.412,23.936,2.255z"/>
</svg>
