<?xml version="1.0" encoding="utf-8"?>
<!-- Generator: Adobe Illustrator 16.0.0, SVG Export Plug-In . SVG Version: 6.00 Build 0)  -->
<!DOCTYPE svg PUBLIC "-//W3C//DTD SVG 1.1//EN" "http://www.w3.org/Graphics/SVG/1.1/DTD/svg11.dtd">
<svg version="1.1" id="Filled_Icons" xmlns="http://www.w3.org/2000/svg" xmlns:xlink="http://www.w3.org/1999/xlink" x="0px"
	 y="0px" width="24px" height="24px" viewBox="0 0 24 24" enable-background="new 0 0 24 24" xml:space="preserve">
<path fill='#00677f' d="M21.759,11.577L2.786,0.077C2.631-0.017,2.439-0.02,2.281,0.069C2.124,0.158,2.027,0.324,2.027,0.505v23
	c0,0.181,0.097,0.347,0.254,0.436c0.077,0.043,0.161,0.064,0.246,0.064c0.09,0,0.18-0.024,0.259-0.072l18.973-11.5
	C21.909,12.342,22,12.18,22,12.005S21.909,11.668,21.759,11.577z"/>
</svg>
