<?xml version="1.0" encoding="utf-8"?>
<!-- Generator: Adobe Illustrator 16.0.0, SVG Export Plug-In . SVG Version: 6.00 Build 0)  -->
<!DOCTYPE svg PUBLIC "-//W3C//DTD SVG 1.1//EN" "http://www.w3.org/Graphics/SVG/1.1/DTD/svg11.dtd">
<svg version="1.1" id="Layer_1" xmlns="http://www.w3.org/2000/svg" xmlns:xlink="http://www.w3.org/1999/xlink" x="0px" y="0px"
	 width="64px" height="64px" viewBox="0 0 64 64" enable-background="new 0 0 64 64" xml:space="preserve">
<g>

		<line fill="none" stroke="#f6ba35" stroke-linecap="round" stroke-linejoin="round" stroke-miterlimit="10" x1="61.5" y1="30.396" x2="17.152" y2="30.396"/>
	<polyline fill="none" stroke="#f6ba35" stroke-linecap="round" stroke-linejoin="round" stroke-miterlimit="10" points="
		27.587,40.83 17.152,30.396 27.587,19.961 	"/>

		<line fill="none" stroke="#f6ba35" stroke-linecap="round" stroke-linejoin="round" stroke-miterlimit="10" x1="1.5" y1="1.7" x2="1.5" y2="61.7"/>
</g>
</svg>
