<?xml version="1.0" encoding="utf-8"?>
<!-- Generator: Adobe Illustrator 16.0.0, SVG Export Plug-In . SVG Version: 6.00 Build 0)  -->
<!DOCTYPE svg PUBLIC "-//W3C//DTD SVG 1.1//EN" "http://www.w3.org/Graphics/SVG/1.1/DTD/svg11.dtd">
<svg version="1.1" id="Layer_1" xmlns="http://www.w3.org/2000/svg" xmlns:xlink="http://www.w3.org/1999/xlink" x="0px" y="0px"
	 width="25px" height="25px" viewBox="0 0 25 25" enable-background="new 0 0 25 25" xml:space="preserve">
<g>

		<line fill="none" stroke="#f6ba35" stroke-linecap="round" stroke-linejoin="round" stroke-miterlimit="10" x1="24.5" y1="11.5" x2="7.5" y2="11.5"/>
	<polyline fill="none" stroke="#f6ba35" stroke-linecap="round" stroke-linejoin="round" stroke-miterlimit="10" points="11.5,15.5
		7.5,11.5 11.5,7.5 	"/>

		<line fill="none" stroke="#f6ba35" stroke-linecap="round" stroke-linejoin="round" stroke-miterlimit="10" x1="1.5" y1="0.5" x2="1.5" y2="23.5"/>
</g>
</svg>
