<?xml version="1.0" encoding="iso-8859-1"?>
<!-- Generator: Adobe Illustrator 17.1.0, SVG Export Plug-In . SVG Version: 6.00 Build 0)  -->
<!DOCTYPE svg PUBLIC "-//W3C//DTD SVG 1.0//EN" "http://www.w3.org/TR/2001/REC-SVG-20010904/DTD/svg10.dtd">
<svg version="1.0" id="Outline_Icons" xmlns="http://www.w3.org/2000/svg" xmlns:xlink="http://www.w3.org/1999/xlink" x="0px"
	 y="0px" width="24px" height="24px" viewBox="0 0 24 24" style="enable-background:new 0 0 24 24;" xml:space="preserve">
<g>
	
		<rect x="0.5" y="2.5" style="fill:none;stroke:#ffffff;stroke-linecap:round;stroke-linejoin:round;stroke-miterlimit:10;" width="23" height="19"/>
	<polyline style="fill:none;stroke:#ffffff;stroke-linecap:round;stroke-linejoin:round;stroke-miterlimit:10;" points="5.5,4.5 
		2.5,4.5 2.5,7.5 	"/>
	<polyline style="fill:none;stroke:#ffffff;stroke-linecap:round;stroke-linejoin:round;stroke-miterlimit:10;" points="18.5,4.5 
		21.5,4.5 21.5,7.5 	"/>
	<polyline style="fill:none;stroke:#ffffff;stroke-linecap:round;stroke-linejoin:round;stroke-miterlimit:10;" points="5.5,19.5 
		2.5,19.5 2.5,16.5 	"/>
	<polyline style="fill:none;stroke:#ffffff;stroke-linecap:round;stroke-linejoin:round;stroke-miterlimit:10;" points="18.5,19.5 
		21.5,19.5 21.5,16.5 	"/>
	<path style="fill:none;stroke:#ffffff;stroke-linecap:round;stroke-linejoin:round;stroke-miterlimit:10;" d="M19.5,12
		c0,0-4,4.5-7.5,4.5S4.5,12,4.5,12s4-4.5,7.5-4.5S19.5,12,19.5,12z"/>
	
		<circle style="fill:none;stroke:#ffffff;stroke-linecap:round;stroke-linejoin:round;stroke-miterlimit:10;" cx="12" cy="12" r="2.5"/>
	
		<circle style="fill:none;stroke:#ffffff;stroke-linecap:round;stroke-linejoin:round;stroke-miterlimit:10;" cx="12" cy="12" r="0.5"/>
</g>
</svg>
