<?xml version="1.0" encoding="utf-8"?>
<!-- Generator: Adobe Illustrator 16.0.0, SVG Export Plug-In . SVG Version: 6.00 Build 0)  -->
<!DOCTYPE svg PUBLIC "-//W3C//DTD SVG 1.1//EN" "http://www.w3.org/Graphics/SVG/1.1/DTD/svg11.dtd">
<svg version="1.1" id="Outline_Version" xmlns="http://www.w3.org/2000/svg" xmlns:xlink="http://www.w3.org/1999/xlink" x="0px"
	 y="0px" width="24px" height="24px" viewBox="0 0 24 24" enable-background="new 0 0 24 24" xml:space="preserve" fill="#ffffff">
<g>
	<path d="M17.962,11.309c-0.025-0.061-0.063-0.116-0.109-0.163l-3.999-3.999c-0.195-0.195-0.512-0.195-0.707,0s-0.195,0.512,0,0.707
		L16.293,11H0.5C0.224,11,0,11.224,0,11.5S0.224,12,0.5,12h15.793l-3.146,3.146c-0.195,0.195-0.195,0.512,0,0.707
		C13.244,15.951,13.372,16,13.5,16s0.256-0.049,0.354-0.146l3.999-3.999c0.047-0.047,0.084-0.103,0.109-0.163
		C18.012,11.568,18.012,11.432,17.962,11.309z"/>
	<path d="M23.5,0C23.224,0,23,0.224,23,0.5v23c0,0.276,0.224,0.5,0.5,0.5s0.5-0.224,0.5-0.5v-23C24,0.224,23.776,0,23.5,0z"/>
</g>
</svg>
