<?xml version="1.0" encoding="utf-8"?>
<!-- Generator: Adobe Illustrator 16.0.0, SVG Export Plug-In . SVG Version: 6.00 Build 0)  -->
<!DOCTYPE svg PUBLIC "-//W3C//DTD SVG 1.1//EN" "http://www.w3.org/Graphics/SVG/1.1/DTD/svg11.dtd">
<svg version="1.1" id="Layer_1" xmlns="http://www.w3.org/2000/svg" xmlns:xlink="http://www.w3.org/1999/xlink" x="0px" y="0px"
	 width="25px" height="25px" viewBox="0 0 25 25" enable-background="new 0 0 25 25" xml:space="preserve">
<g fill="#ffffff">
	<path d="M11.03,15h-0.438v4.188h0.438c0.938,0,1.27-1.129,1.27-2.094C12.3,16.127,11.968,15,11.03,15z"/>
	<path d="M6.521,15H5.78v1.594h0.74c0.639,0,0.74-0.189,0.74-0.797S7.159,15,6.521,15z"/>
	<path d="M20.854,7.146l-6-6C14.76,1.053,14.633,1,14.5,1h-13C1.224,1,1,1.224,1,1.5v23C1,24.776,1.224,25,1.5,25h19
		c0.275,0,0.5-0.224,0.5-0.5v-17C21,7.367,20.947,7.24,20.854,7.146z M6.521,17.594H5.78v2.094c0,0.275-0.224,0.5-0.5,0.5
		s-0.5-0.225-0.5-0.5V14.5c0-0.276,0.224-0.5,0.5-0.5h1.24c1.154,0,1.74,0.604,1.74,1.797C8.261,16.988,7.675,17.594,6.521,17.594z
		 M11.03,20.188h-0.938c-0.276,0-0.5-0.225-0.5-0.5V14.5c0-0.276,0.224-0.5,0.5-0.5h0.938c1.357,0,2.27,1.243,2.27,3.094
		S12.388,20.188,11.03,20.188z M17.5,15h-1.755v1.594h1.141c0.276,0,0.5,0.223,0.5,0.5c0,0.275-0.224,0.5-0.5,0.5h-1.141v2.094
		c0,0.275-0.224,0.5-0.5,0.5s-0.5-0.225-0.5-0.5V14.5c0-0.276,0.224-0.5,0.5-0.5H17.5c0.276,0,0.5,0.224,0.5,0.5S17.776,15,17.5,15z
		 M14.5,7.5v-6l6,6H14.5z"/>
</g>
</svg>
