<svg xmlns="http://www.w3.org/2000/svg" width="24" height="24" viewBox="0 0 24 24">
	<g stroke="#004355" stroke-linecap="round" stroke-linejoin="round" stroke-miterlimit="10" fill="#000">
		<path d="M23.5.5l-23 23M23.5 23.5l-23-23"/>
	</g>
</svg>