<?xml version="1.0" encoding="utf-8"?>
<!-- Generator: Adobe Illustrator 16.0.0, SVG Export Plug-In . SVG Version: 6.00 Build 0)  -->
<!DOCTYPE svg PUBLIC "-//W3C//DTD SVG 1.1//EN" "http://www.w3.org/Graphics/SVG/1.1/DTD/svg11.dtd">
<svg version="1.1" id="Filled_Version" xmlns="http://www.w3.org/2000/svg" xmlns:xlink="http://www.w3.org/1999/xlink" x="0px"
	 y="0px" width="24px" height="24px" viewBox="0 0 24 24" enable-background="new 0 0 24 24" xml:space="preserve">
<g>
	<path d="M6,20c-1.104,0-2,0.898-2,2c0,1.104,0.896,2,2,2s2-0.896,2-2C8,20.898,7.104,20,6,20z"/>
	<path d="M17,20c-1.104,0-2,0.898-2,2c0,1.104,0.896,2,2,2s2-0.896,2-2C19,20.898,18.104,20,17,20z"/>
	<path d="M23.5,4h-2.559c-0.502,0-0.93,0.377-0.992,0.877l-0.336,2.686C19.582,7.812,19.369,8,19.117,8H2
		C1.367,8,0.764,8.305,0.389,8.815c-0.377,0.512-0.486,1.178-0.297,1.78l1.563,5C1.916,16.436,2.682,17,3.563,17H18
		c0.275,0,0.5,0.226,0.5,0.5c0,0.276-0.225,0.5-0.5,0.5H4c-0.275,0-0.5,0.224-0.5,0.5S3.725,19,4,19h14
		c0.805,0,1.459-0.638,1.494-1.434c0-0.004,0.002-0.007,0.002-0.011l0,0l0.002-0.003l0,0v-0.015l1.107-9.853L20.941,5H23.5
		C23.775,5,24,4.776,24,4.5S23.775,4,23.5,4z"/>
</g>
</svg>
